<svg width="50" height="50" viewBox="0 0 50 50" xmlns="http://www.w3.org/2000/svg">
<path d="M46.9453 12.8502C47.2667 11.7828 46.9453 11 45.4256 11H40.3914C39.1105 11 38.5251 11.6772 38.2037 12.421C38.2037 12.421 35.6441 18.6627 32.0171 22.7098C30.8464 23.8874 30.3115 24.2593 29.6733 24.2593C29.3542 24.2593 28.8905 23.8874 28.8905 22.82V12.8502C28.8905 11.5693 28.5209 11 27.4535 11H19.5429C18.744 11 18.2619 11.5923 18.2619 12.157C18.2619 13.369 20.0755 13.6491 20.2614 17.0649V24.4751C20.2614 26.0981 19.9699 26.3942 19.3271 26.3942C17.6215 26.3942 13.471 20.1296 11.0079 12.9581C10.5281 11.5647 10.0437 11.0023 8.75821 11.0023H3.72628C2.28695 11.0023 2 11.6795 2 12.4233C2 13.7593 3.70562 20.3706 9.94503 29.1145C14.1046 35.0853 19.9607 38.3221 25.2956 38.3221C28.4934 38.3221 28.8882 37.6036 28.8882 36.3639V31.8508C28.8882 30.4138 29.1935 30.1245 30.2059 30.1245C30.9497 30.1245 32.2306 30.501 35.2171 33.3774C38.6284 36.7886 39.1931 38.3198 41.1099 38.3198H46.1418C47.5789 38.3198 48.2974 37.6013 47.8842 36.1826C47.432 34.7708 45.8021 32.7163 43.6397 30.2852C42.4643 28.8987 40.7082 27.4066 40.1733 26.6605C39.4273 25.6986 39.643 25.274 40.1733 24.42C40.1756 24.4223 46.3071 15.7863 46.9453 12.8502V12.8502Z" />
</svg>
